…
### Sample Frequencies

``` r
recent_results %>%
  select(station, tn_n)
#> # A tibble: 23 x 2
#>    station  tn_n
#>    <fct>   <int>
#>  1 CMS1       17
#>  2 OBY35      10
#>  3 PYC43      12
#>  4 P7CBI      30
#>  5 P5BSD      31
#>  6 PH1        14
#>  7 HR1        19
#>  8 BMR02      12
#>  9 HR3        13
#> 10 PH2        14
#> # ... with 13 more rows
```
…
