…
While robust and resistant methods are attractive in this setting, it is
worth pointing out that if high NH4 values are just plain wrong, as
suspected, their presence will still affect the probability distribution
for the expected value of trimmed means. Their importance will shrink
with higher levels of trimming, but the effect won’t vanish.

### List of Samples with DIN &gt; TN

``` r
all_data[which(all_data$err),] %>%
  select(station, dt) %>%
  arrange(station, dt)
#> # A tibble: 37 x 2
#>    station dt                 
#>    <chr>   <dttm>             
#>  1 EEB18   2012-09-12 00:00:00
#>  2 HR1     2017-08-24 00:00:00
#>  3 HR3     2017-09-25 00:00:00
#>  4 HR4     2019-07-10 00:00:00
#>  5 KVL84   2007-05-30 00:00:00
#>  6 KVL84   2007-06-06 00:00:00
#>  7 KVL84   2017-10-04 00:00:00
#>  8 NMM79   2017-07-21 00:00:00
#>  9 P5BSD   2012-01-23 00:00:00
#> 10 P5BSD   2012-02-16 00:00:00
#> # ... with 27 more rows
```
…
